{
  "CodeKitInfo" : "This is a CodeKit project configuration file. It is designed to sync project settings across multiple machines. Modifying the contents of this file can be a poor life decision if you don't know what you're doing. This file is not useful unless accompanied by the project that created it in CodeKit. For more information, see: http:\/\/incident57.com\/codekit",
  "creatorBuild" : "8403",
  "files" : {
    "\/_\/components\/js\/scrollspy.js" : {
      "ignoreWasSetByUser" : 0,
      "ignore" : 1,
      "hidden" : 0,
      "outputPathIsSetByUser" : 0,
      "inputAbbreviatedPath" : "\/_\/components\/js\/scrollspy.js",
      "outputStyle" : 1,
      "syntaxCheckerStyle" : 1,
      "outputAbbreviatedPath" : "\/_\/components\/js\/scrollspy-ck.js",
      "fileType" : 64
    },
    "\/img\/favicon\/apple-touch-icon-144x144-precomposed.png" : {
      "ignoreWasSetByUser" : 0,
      "ignore" : 0,
      "hidden" : 0,
      "outputPathIsSetByUser" : 0,
      "inputAbbreviatedPath" : "\/img\/favicon\/apple-touch-icon-144x144-precomposed.png",
      "processed" : 0,
      "outputAbbreviatedPath" : "\/img\/favicon\/apple-touch-icon-144x144-precomposed.png",
      "initialSize" : 1475,
      "fileType" : 8192
    },
    "\/_\/js\/vendor\/jquery-2.0.3.min.js" : {
      "ignoreWasSetByUser" : 0,
      "ignore" : 0,
      "hidden" : 0,
      "outputPathIsSetByUser" : 0,
      "inputAbbreviatedPath" : "\/_\/js\/vendor\/jquery-2.0.3.min.js",
      "outputStyle" : 1,
      "syntaxCheckerStyle" : 1,
      "outputAbbreviatedPath" : "\/_\/js\/vendor\/jquery-2.0.3.min-ck.js",
      "fileType" : 64
    },
    "\/_\/components\/less\/jumbotron.less" : {
      "ieCompatibility" : 1,
      "inputAbbreviatedPath" : "\/_\/components\/less\/jumbotron.less",
      "outputAbbreviatedPath" : "\/_\/components\/css\/jumbotron.css",
      "outputPathIsSetByUser" : 0,
      "strictUnits" : 0,
      "relativeURLS" : 0,
      "ignore" : 1,
      "strictImports" : 0,
      "ignoreWasSetByUser" : 0,
      "shouldRunBless" : 0,
      "hidden" : 0,
      "strictMath" : 0,
      "outputStyle" : 0,
      "fileType" : 1,
      "debugStyle" : 0
    },
    "\/img\/footer\/cam-logo.png" : {
      "ignoreWasSetByUser" : 0,
      "ignore" : 0,
      "hidden" : 0,
      "outputPathIsSetByUser" : 0,
      "inputAbbreviatedPath" : "\/img\/footer\/cam-logo.png",
      "processed" : 0,
      "outputAbbreviatedPath" : "\/img\/footer\/cam-logo.png",
      "initialSize" : 10237,
      "fileType" : 8192
    },
    "\/_\/components\/js\/affix.js" : {
      "ignoreWasSetByUser" : 0,
      "ignore" : 1,
      "hidden" : 0,
      "outputPathIsSetByUser" : 0,
      "inputAbbreviatedPath" : "\/_\/components\/js\/affix.js",
      "outputStyle" : 1,
      "syntaxCheckerStyle" : 1,
      "outputAbbreviatedPath" : "\/_\/components\/js\/affix-ck.js",
      "fileType" : 64
    },
    "\/_\/components\/less\/popovers.less" : {
      "ieCompatibility" : 1,
      "inputAbbreviatedPath" : "\/_\/components\/less\/popovers.less",
      "outputAbbreviatedPath" : "\/_\/components\/css\/popovers.css",
      "outputPathIsSetByUser" : 0,
      "strictUnits" : 0,
      "relativeURLS" : 0,
      "ignore" : 1,
      "strictImports" : 0,
      "ignoreWasSetByUser" : 0,
      "shouldRunBless" : 0,
      "hidden" : 0,
      "strictMath" : 0,
      "outputStyle" : 0,
      "fileType" : 1,
      "debugStyle" : 0
    },
    "\/_\/components\/js\/tab.js" : {
      "ignoreWasSetByUser" : 0,
      "ignore" : 1,
      "hidden" : 0,
      "outputPathIsSetByUser" : 0,
      "inputAbbreviatedPath" : "\/_\/components\/js\/tab.js",
      "outputStyle" : 1,
      "syntaxCheckerStyle" : 1,
      "outputAbbreviatedPath" : "\/_\/components\/js\/tab-ck.js",
      "fileType" : 64
    },
    "\/_\/components\/less\/thumbnails.less" : {
      "ieCompatibility" : 1,
      "inputAbbreviatedPath" : "\/_\/components\/less\/thumbnails.less",
      "outputAbbreviatedPath" : "\/_\/components\/css\/thumbnails.css",
      "outputPathIsSetByUser" : 0,
      "strictUnits" : 0,
      "relativeURLS" : 0,
      "ignore" : 1,
      "strictImports" : 0,
      "ignoreWasSetByUser" : 0,
      "shouldRunBless" : 0,
      "hidden" : 0,
      "strictMath" : 0,
      "outputStyle" : 0,
      "fileType" : 1,
      "debugStyle" : 0
    },
    "\/img\/favicon\/apple-touch-icon-57x57-precomposed.png" : {
      "ignoreWasSetByUser" : 0,
      "ignore" : 0,
      "hidden" : 0,
      "outputPathIsSetByUser" : 0,
      "inputAbbreviatedPath" : "\/img\/favicon\/apple-touch-icon-57x57-precomposed.png",
      "processed" : 0,
      "outputAbbreviatedPath" : "\/img\/favicon\/apple-touch-icon-57x57-precomposed.png",
      "initialSize" : 730,
      "fileType" : 8192
    },
    "\/_\/components\/js\/carousel.js" : {
      "ignoreWasSetByUser" : 0,
      "ignore" : 1,
      "hidden" : 0,
      "outputPathIsSetByUser" : 0,
      "inputAbbreviatedPath" : "\/_\/components\/js\/carousel.js",
      "outputStyle" : 1,
      "syntaxCheckerStyle" : 1,
      "outputAbbreviatedPath" : "\/_\/components\/js\/carousel-ck.js",
      "fileType" : 64
    },
    "\/_\/components\/js\/dropdown.js" : {
      "ignoreWasSetByUser" : 0,
      "ignore" : 1,
      "hidden" : 0,
      "outputPathIsSetByUser" : 0,
      "inputAbbreviatedPath" : "\/_\/components\/js\/dropdown.js",
      "outputStyle" : 1,
      "syntaxCheckerStyle" : 1,
      "outputAbbreviatedPath" : "\/_\/components\/js\/dropdown-ck.js",
      "fileType" : 64
    },
    "\/_\/components\/less\/breadcrumbs.less" : {
      "ieCompatibility" : 1,
      "inputAbbreviatedPath" : "\/_\/components\/less\/breadcrumbs.less",
      "outputAbbreviatedPath" : "\/_\/components\/css\/breadcrumbs.css",
      "outputPathIsSetByUser" : 0,
      "strictUnits" : 0,
      "relativeURLS" : 0,
      "ignore" : 1,
      "strictImports" : 0,
      "ignoreWasSetByUser" : 0,
      "shouldRunBless" : 0,
      "hidden" : 0,
      "strictMath" : 0,
      "outputStyle" : 0,
      "fileType" : 1,
      "debugStyle" : 0
    },
    "\/_\/components\/less\/theme.less" : {
      "ieCompatibility" : 1,
      "inputAbbreviatedPath" : "\/_\/components\/less\/theme.less",
      "outputAbbreviatedPath" : "\/_\/css\/bootstrap-theme.css",
      "outputPathIsSetByUser" : 1,
      "strictUnits" : 0,
      "relativeURLS" : 0,
      "ignore" : 0,
      "strictImports" : 0,
      "ignoreWasSetByUser" : 0,
      "shouldRunBless" : 0,
      "hidden" : 0,
      "strictMath" : 0,
      "outputStyle" : 2,
      "fileType" : 1,
      "debugStyle" : 0
    },
    "\/img\/cambridge_logo.png" : {
      "ignoreWasSetByUser" : 0,
      "ignore" : 0,
      "hidden" : 0,
      "outputPathIsSetByUser" : 0,
      "inputAbbreviatedPath" : "\/img\/cambridge_logo.png",
      "processed" : 0,
      "outputAbbreviatedPath" : "\/img\/cambridge_logo.png",
      "initialSize" : 9734,
      "fileType" : 8192
    },
    "\/img\/footer\/language-centre-logo.png" : {
      "ignoreWasSetByUser" : 0,
      "ignore" : 0,
      "hidden" : 0,
      "outputPathIsSetByUser" : 0,
      "inputAbbreviatedPath" : "\/img\/footer\/language-centre-logo.png",
      "processed" : 0,
      "outputAbbreviatedPath" : "\/img\/footer\/language-centre-logo.png",
      "initialSize" : 10768,
      "fileType" : 8192
    },
    "\/_\/js\/vendor\/jquery-2.0.3.js" : {
      "ignoreWasSetByUser" : 0,
      "ignore" : 0,
      "hidden" : 0,
      "outputPathIsSetByUser" : 0,
      "inputAbbreviatedPath" : "\/_\/js\/vendor\/jquery-2.0.3.js",
      "outputStyle" : 1,
      "syntaxCheckerStyle" : 1,
      "outputAbbreviatedPath" : "\/_\/js\/vendor\/jquery-2.0.3-ck.js",
      "fileType" : 64
    },
    "\/_\/components\/less\/carousel.less" : {
      "ieCompatibility" : 1,
      "inputAbbreviatedPath" : "\/_\/components\/less\/carousel.less",
      "outputAbbreviatedPath" : "\/_\/components\/css\/carousel.css",
      "outputPathIsSetByUser" : 0,
      "strictUnits" : 0,
      "relativeURLS" : 0,
      "ignore" : 1,
      "strictImports" : 0,
      "ignoreWasSetByUser" : 0,
      "shouldRunBless" : 0,
      "hidden" : 0,
      "strictMath" : 0,
      "outputStyle" : 0,
      "fileType" : 1,
      "debugStyle" : 0
    },
    "\/_\/components\/js\/alert.js" : {
      "ignoreWasSetByUser" : 0,
      "ignore" : 1,
      "hidden" : 0,
      "outputPathIsSetByUser" : 0,
      "inputAbbreviatedPath" : "\/_\/components\/js\/alert.js",
      "outputStyle" : 1,
      "syntaxCheckerStyle" : 1,
      "outputAbbreviatedPath" : "\/_\/components\/js\/alert-ck.js",
      "fileType" : 64
    },
    "\/_\/js\/plugins.js" : {
      "ignoreWasSetByUser" : 1,
      "ignore" : 1,
      "hidden" : 0,
      "outputPathIsSetByUser" : 1,
      "inputAbbreviatedPath" : "\/_\/js\/plugins.js",
      "outputStyle" : 1,
      "syntaxCheckerStyle" : 0,
      "outputAbbreviatedPath" : "\/_\/js\/plugins.js",
      "fileType" : 64
    },
    "\/index.html" : {
      "ignoreWasSetByUser" : 0,
      "ignore" : 0,
      "hidden" : 0,
      "outputPathIsSetByUser" : 0,
      "inputAbbreviatedPath" : "\/index.html",
      "outputAbbreviatedPath" : "No Output Path",
      "fileType" : 2048
    },
    "\/_\/css\/bootstrap.css" : {
      "ignoreWasSetByUser" : 0,
      "ignore" : 0,
      "hidden" : 0,
      "outputPathIsSetByUser" : 0,
      "inputAbbreviatedPath" : "\/_\/css\/bootstrap.css",
      "outputAbbreviatedPath" : "No Output Path",
      "fileType" : 16
    },
    "\/_\/components\/less\/print.less" : {
      "ieCompatibility" : 1,
      "inputAbbreviatedPath" : "\/_\/components\/less\/print.less",
      "outputAbbreviatedPath" : "\/_\/components\/css\/print.css",
      "outputPathIsSetByUser" : 0,
      "strictUnits" : 0,
      "relativeURLS" : 0,
      "ignore" : 1,
      "strictImports" : 0,
      "ignoreWasSetByUser" : 0,
      "shouldRunBless" : 0,
      "hidden" : 0,
      "strictMath" : 0,
      "outputStyle" : 0,
      "fileType" : 1,
      "debugStyle" : 0
    },
    "\/_\/components\/less\/wells.less" : {
      "ieCompatibility" : 1,
      "inputAbbreviatedPath" : "\/_\/components\/less\/wells.less",
      "outputAbbreviatedPath" : "\/_\/components\/css\/wells.css",
      "outputPathIsSetByUser" : 0,
      "strictUnits" : 0,
      "relativeURLS" : 0,
      "ignore" : 1,
      "strictImports" : 0,
      "ignoreWasSetByUser" : 0,
      "shouldRunBless" : 0,
      "hidden" : 0,
      "strictMath" : 0,
      "outputStyle" : 0,
      "fileType" : 1,
      "debugStyle" : 0
    },
    "\/_\/js\/vendor\/bootstrap.js" : {
      "ignoreWasSetByUser" : 0,
      "ignore" : 1,
      "hidden" : 0,
      "outputPathIsSetByUser" : 0,
      "inputAbbreviatedPath" : "\/_\/js\/vendor\/bootstrap.js",
      "outputStyle" : 1,
      "syntaxCheckerStyle" : 1,
      "outputAbbreviatedPath" : "\/_\/js\/vendor\/bootstrap-ck.js",
      "fileType" : 64
    },
    "\/_\/components\/less\/mixins.less" : {
      "ieCompatibility" : 1,
      "inputAbbreviatedPath" : "\/_\/components\/less\/mixins.less",
      "outputAbbreviatedPath" : "\/_\/components\/css\/mixins.css",
      "outputPathIsSetByUser" : 0,
      "strictUnits" : 0,
      "relativeURLS" : 0,
      "ignore" : 1,
      "strictImports" : 0,
      "ignoreWasSetByUser" : 0,
      "shouldRunBless" : 0,
      "hidden" : 0,
      "strictMath" : 0,
      "outputStyle" : 0,
      "fileType" : 1,
      "debugStyle" : 0
    },
    "\/img\/favicon\/apple-touch-icon-114x114-precomposed.png" : {
      "ignoreWasSetByUser" : 0,
      "ignore" : 0,
      "hidden" : 0,
      "outputPathIsSetByUser" : 0,
      "inputAbbreviatedPath" : "\/img\/favicon\/apple-touch-icon-114x114-precomposed.png",
      "processed" : 0,
      "outputAbbreviatedPath" : "\/img\/favicon\/apple-touch-icon-114x114-precomposed.png",
      "initialSize" : 1189,
      "fileType" : 8192
    },
    "\/_\/components\/less\/button-groups.less" : {
      "ieCompatibility" : 1,
      "inputAbbreviatedPath" : "\/_\/components\/less\/button-groups.less",
      "outputAbbreviatedPath" : "\/_\/components\/css\/button-groups.css",
      "outputPathIsSetByUser" : 0,
      "strictUnits" : 0,
      "relativeURLS" : 0,
      "ignore" : 1,
      "strictImports" : 0,
      "ignoreWasSetByUser" : 0,
      "shouldRunBless" : 0,
      "hidden" : 0,
      "strictMath" : 0,
      "outputStyle" : 0,
      "fileType" : 1,
      "debugStyle" : 0
    },
    "\/_\/components\/less\/glyphicons.less" : {
      "ieCompatibility" : 1,
      "inputAbbreviatedPath" : "\/_\/components\/less\/glyphicons.less",
      "outputAbbreviatedPath" : "\/_\/components\/css\/glyphicons.css",
      "outputPathIsSetByUser" : 0,
      "strictUnits" : 0,
      "relativeURLS" : 0,
      "ignore" : 1,
      "strictImports" : 0,
      "ignoreWasSetByUser" : 0,
      "shouldRunBless" : 0,
      "hidden" : 0,
      "strictMath" : 0,
      "outputStyle" : 0,
      "fileType" : 1,
      "debugStyle" : 0
    },
    "\/_\/components\/js\/_plugins.js" : {
      "ignoreWasSetByUser" : 1,
      "ignore" : 0,
      "hidden" : 0,
      "outputPathIsSetByUser" : 1,
      "inputAbbreviatedPath" : "\/_\/components\/js\/_plugins.js",
      "outputStyle" : 1,
      "syntaxCheckerStyle" : 0,
      "outputAbbreviatedPath" : "\/_\/js\/plugins.js",
      "fileType" : 64
    },
    "\/_\/components\/less\/media.less" : {
      "ieCompatibility" : 1,
      "inputAbbreviatedPath" : "\/_\/components\/less\/media.less",
      "outputAbbreviatedPath" : "\/_\/components\/css\/media.css",
      "outputPathIsSetByUser" : 0,
      "strictUnits" : 0,
      "relativeURLS" : 0,
      "ignore" : 1,
      "strictImports" : 0,
      "ignoreWasSetByUser" : 0,
      "shouldRunBless" : 0,
      "hidden" : 0,
      "strictMath" : 0,
      "outputStyle" : 0,
      "fileType" : 1,
      "debugStyle" : 0
    },
    "\/img\/favicon\/apple-touch-icon.png" : {
      "ignoreWasSetByUser" : 0,
      "ignore" : 0,
      "hidden" : 0,
      "outputPathIsSetByUser" : 0,
      "inputAbbreviatedPath" : "\/img\/favicon\/apple-touch-icon.png",
      "processed" : 0,
      "outputAbbreviatedPath" : "\/img\/favicon\/apple-touch-icon.png",
      "initialSize" : 730,
      "fileType" : 8192
    },
    "\/_\/components\/less\/normalize.less" : {
      "ieCompatibility" : 1,
      "inputAbbreviatedPath" : "\/_\/components\/less\/normalize.less",
      "outputAbbreviatedPath" : "\/_\/components\/css\/normalize.css",
      "outputPathIsSetByUser" : 0,
      "strictUnits" : 0,
      "relativeURLS" : 0,
      "ignore" : 1,
      "strictImports" : 0,
      "ignoreWasSetByUser" : 0,
      "shouldRunBless" : 0,
      "hidden" : 0,
      "strictMath" : 0,
      "outputStyle" : 0,
      "fileType" : 1,
      "debugStyle" : 0
    },
    "\/_\/components\/less\/modals.less" : {
      "ieCompatibility" : 1,
      "inputAbbreviatedPath" : "\/_\/components\/less\/modals.less",
      "outputAbbreviatedPath" : "\/_\/components\/css\/modals.css",
      "outputPathIsSetByUser" : 0,
      "strictUnits" : 0,
      "relativeURLS" : 0,
      "ignore" : 1,
      "strictImports" : 0,
      "ignoreWasSetByUser" : 0,
      "shouldRunBless" : 0,
      "hidden" : 0,
      "strictMath" : 0,
      "outputStyle" : 0,
      "fileType" : 1,
      "debugStyle" : 0
    },
    "\/_\/components\/less\/scaffolding.less" : {
      "ieCompatibility" : 1,
      "inputAbbreviatedPath" : "\/_\/components\/less\/scaffolding.less",
      "outputAbbreviatedPath" : "\/_\/components\/css\/scaffolding.css",
      "outputPathIsSetByUser" : 0,
      "strictUnits" : 0,
      "relativeURLS" : 0,
      "ignore" : 1,
      "strictImports" : 0,
      "ignoreWasSetByUser" : 0,
      "shouldRunBless" : 0,
      "hidden" : 0,
      "strictMath" : 0,
      "outputStyle" : 0,
      "fileType" : 1,
      "debugStyle" : 0
    },
    "\/_\/components\/js\/transition.js" : {
      "ignoreWasSetByUser" : 0,
      "ignore" : 1,
      "hidden" : 0,
      "outputPathIsSetByUser" : 0,
      "inputAbbreviatedPath" : "\/_\/components\/js\/transition.js",
      "outputStyle" : 1,
      "syntaxCheckerStyle" : 1,
      "outputAbbreviatedPath" : "\/_\/components\/js\/transition-ck.js",
      "fileType" : 64
    },
    "\/_\/components\/less\/panels.less" : {
      "ieCompatibility" : 1,
      "inputAbbreviatedPath" : "\/_\/components\/less\/panels.less",
      "outputAbbreviatedPath" : "\/_\/components\/css\/panels.css",
      "outputPathIsSetByUser" : 0,
      "strictUnits" : 0,
      "relativeURLS" : 0,
      "ignore" : 1,
      "strictImports" : 0,
      "ignoreWasSetByUser" : 0,
      "shouldRunBless" : 0,
      "hidden" : 0,
      "strictMath" : 0,
      "outputStyle" : 0,
      "fileType" : 1,
      "debugStyle" : 0
    },
    "\/_\/components\/less\/tables.less" : {
      "ieCompatibility" : 1,
      "inputAbbreviatedPath" : "\/_\/components\/less\/tables.less",
      "outputAbbreviatedPath" : "\/_\/components\/css\/tables.css",
      "outputPathIsSetByUser" : 0,
      "strictUnits" : 0,
      "relativeURLS" : 0,
      "ignore" : 1,
      "strictImports" : 0,
      "ignoreWasSetByUser" : 0,
      "shouldRunBless" : 0,
      "hidden" : 0,
      "strictMath" : 0,
      "outputStyle" : 0,
      "fileType" : 1,
      "debugStyle" : 0
    },
    "\/img\/footer\/footer.png" : {
      "ignoreWasSetByUser" : 0,
      "ignore" : 0,
      "hidden" : 0,
      "outputPathIsSetByUser" : 0,
      "inputAbbreviatedPath" : "\/img\/footer\/footer.png",
      "processed" : 0,
      "outputAbbreviatedPath" : "\/img\/footer\/footer.png",
      "initialSize" : 30044,
      "fileType" : 8192
    },
    "\/_\/components\/less\/forms.less" : {
      "ieCompatibility" : 1,
      "inputAbbreviatedPath" : "\/_\/components\/less\/forms.less",
      "outputAbbreviatedPath" : "\/_\/components\/css\/forms.css",
      "outputPathIsSetByUser" : 0,
      "strictUnits" : 0,
      "relativeURLS" : 0,
      "ignore" : 1,
      "strictImports" : 0,
      "ignoreWasSetByUser" : 0,
      "shouldRunBless" : 0,
      "hidden" : 0,
      "strictMath" : 0,
      "outputStyle" : 0,
      "fileType" : 1,
      "debugStyle" : 0
    },
    "\/_\/js\/main.js" : {
      "ignoreWasSetByUser" : 1,
      "ignore" : 1,
      "hidden" : 0,
      "outputPathIsSetByUser" : 1,
      "inputAbbreviatedPath" : "\/_\/js\/main.js",
      "outputStyle" : 1,
      "syntaxCheckerStyle" : 0,
      "outputAbbreviatedPath" : "\/_\/js\/main.js",
      "fileType" : 64
    },
    "\/_\/components\/less\/pagination.less" : {
      "ieCompatibility" : 1,
      "inputAbbreviatedPath" : "\/_\/components\/less\/pagination.less",
      "outputAbbreviatedPath" : "\/_\/components\/css\/pagination.css",
      "outputPathIsSetByUser" : 0,
      "strictUnits" : 0,
      "relativeURLS" : 0,
      "ignore" : 1,
      "strictImports" : 0,
      "ignoreWasSetByUser" : 0,
      "shouldRunBless" : 0,
      "hidden" : 0,
      "strictMath" : 0,
      "outputStyle" : 0,
      "fileType" : 1,
      "debugStyle" : 0
    },
    "\/_\/css\/main.css" : {
      "ignoreWasSetByUser" : 0,
      "ignore" : 1,
      "hidden" : 0,
      "outputPathIsSetByUser" : 0,
      "inputAbbreviatedPath" : "\/_\/css\/main.css",
      "outputAbbreviatedPath" : "\/No Output Path",
      "fileType" : 16
    },
    "\/_\/components\/js\/modal.js" : {
      "ignoreWasSetByUser" : 0,
      "ignore" : 1,
      "hidden" : 0,
      "outputPathIsSetByUser" : 0,
      "inputAbbreviatedPath" : "\/_\/components\/js\/modal.js",
      "outputStyle" : 1,
      "syntaxCheckerStyle" : 1,
      "outputAbbreviatedPath" : "\/_\/components\/js\/modal-ck.js",
      "fileType" : 64
    },
    "\/starter.html" : {
      "ignoreWasSetByUser" : 0,
      "ignore" : 0,
      "hidden" : 0,
      "outputPathIsSetByUser" : 0,
      "inputAbbreviatedPath" : "\/starter.html",
      "outputAbbreviatedPath" : "No Output Path",
      "fileType" : 2048
    },
    "\/_\/components\/less\/bootstrap.less" : {
      "ieCompatibility" : 1,
      "inputAbbreviatedPath" : "\/_\/components\/less\/bootstrap.less",
      "outputAbbreviatedPath" : "\/_\/components\/css\/bootstrap.css",
      "outputPathIsSetByUser" : 0,
      "strictUnits" : 0,
      "relativeURLS" : 0,
      "ignore" : 1,
      "strictImports" : 0,
      "ignoreWasSetByUser" : 1,
      "shouldRunBless" : 0,
      "hidden" : 0,
      "strictMath" : 0,
      "outputStyle" : 0,
      "fileType" : 1,
      "debugStyle" : 0
    },
    "\/_\/components\/less\/tooltip.less" : {
      "ieCompatibility" : 1,
      "inputAbbreviatedPath" : "\/_\/components\/less\/tooltip.less",
      "outputAbbreviatedPath" : "\/_\/components\/css\/tooltip.css",
      "outputPathIsSetByUser" : 0,
      "strictUnits" : 0,
      "relativeURLS" : 0,
      "ignore" : 1,
      "strictImports" : 0,
      "ignoreWasSetByUser" : 0,
      "shouldRunBless" : 0,
      "hidden" : 0,
      "strictMath" : 0,
      "outputStyle" : 0,
      "fileType" : 1,
      "debugStyle" : 0
    },
    "\/_\/components\/less\/code.less" : {
      "ieCompatibility" : 1,
      "inputAbbreviatedPath" : "\/_\/components\/less\/code.less",
      "outputAbbreviatedPath" : "\/_\/components\/css\/code.css",
      "outputPathIsSetByUser" : 0,
      "strictUnits" : 0,
      "relativeURLS" : 0,
      "ignore" : 1,
      "strictImports" : 0,
      "ignoreWasSetByUser" : 0,
      "shouldRunBless" : 0,
      "hidden" : 0,
      "strictMath" : 0,
      "outputStyle" : 0,
      "fileType" : 1,
      "debugStyle" : 0
    },
    "\/_\/components\/js\/collapse.js" : {
      "ignoreWasSetByUser" : 0,
      "ignore" : 1,
      "hidden" : 0,
      "outputPathIsSetByUser" : 0,
      "inputAbbreviatedPath" : "\/_\/components\/js\/collapse.js",
      "outputStyle" : 1,
      "syntaxCheckerStyle" : 1,
      "outputAbbreviatedPath" : "\/_\/components\/js\/collapse-ck.js",
      "fileType" : 64
    },
    "\/_\/css\/bootstrap-theme.css" : {
      "ignoreWasSetByUser" : 0,
      "ignore" : 1,
      "hidden" : 0,
      "outputPathIsSetByUser" : 0,
      "inputAbbreviatedPath" : "\/_\/css\/bootstrap-theme.css",
      "outputAbbreviatedPath" : "\/No Output Path",
      "fileType" : 16
    },
    "\/_\/components\/less\/navs.less" : {
      "ieCompatibility" : 1,
      "inputAbbreviatedPath" : "\/_\/components\/less\/navs.less",
      "outputAbbreviatedPath" : "\/_\/components\/css\/navs.css",
      "outputPathIsSetByUser" : 0,
      "strictUnits" : 0,
      "relativeURLS" : 0,
      "ignore" : 1,
      "strictImports" : 0,
      "ignoreWasSetByUser" : 0,
      "shouldRunBless" : 0,
      "hidden" : 0,
      "strictMath" : 0,
      "outputStyle" : 0,
      "fileType" : 1,
      "debugStyle" : 0
    },
    "\/_\/components\/less\/close.less" : {
      "ieCompatibility" : 1,
      "inputAbbreviatedPath" : "\/_\/components\/less\/close.less",
      "outputAbbreviatedPath" : "\/_\/components\/css\/close.css",
      "outputPathIsSetByUser" : 0,
      "strictUnits" : 0,
      "relativeURLS" : 0,
      "ignore" : 1,
      "strictImports" : 0,
      "ignoreWasSetByUser" : 0,
      "shouldRunBless" : 0,
      "hidden" : 0,
      "strictMath" : 0,
      "outputStyle" : 0,
      "fileType" : 1,
      "debugStyle" : 0
    },
    "\/_\/components\/js\/_bootstrap.js" : {
      "ignoreWasSetByUser" : 1,
      "ignore" : 0,
      "hidden" : 0,
      "outputPathIsSetByUser" : 1,
      "inputAbbreviatedPath" : "\/_\/components\/js\/_bootstrap.js",
      "outputStyle" : 1,
      "syntaxCheckerStyle" : 0,
      "outputAbbreviatedPath" : "\/_\/js\/vendor\/bootstrap.js",
      "fileType" : 64
    },
    "\/_\/components\/less\/variables.less" : {
      "ieCompatibility" : 1,
      "inputAbbreviatedPath" : "\/_\/components\/less\/variables.less",
      "outputAbbreviatedPath" : "\/_\/components\/css\/variables.css",
      "outputPathIsSetByUser" : 0,
      "strictUnits" : 0,
      "relativeURLS" : 0,
      "ignore" : 1,
      "strictImports" : 0,
      "ignoreWasSetByUser" : 0,
      "shouldRunBless" : 0,
      "hidden" : 0,
      "strictMath" : 0,
      "outputStyle" : 0,
      "fileType" : 1,
      "debugStyle" : 0
    },
    "\/_\/components\/less\/type.less" : {
      "ieCompatibility" : 1,
      "inputAbbreviatedPath" : "\/_\/components\/less\/type.less",
      "outputAbbreviatedPath" : "\/_\/components\/css\/type.css",
      "outputPathIsSetByUser" : 0,
      "strictUnits" : 0,
      "relativeURLS" : 0,
      "ignore" : 1,
      "strictImports" : 0,
      "ignoreWasSetByUser" : 0,
      "shouldRunBless" : 0,
      "hidden" : 0,
      "strictMath" : 0,
      "outputStyle" : 0,
      "fileType" : 1,
      "debugStyle" : 0
    },
    "\/_\/components\/less\/responsive-utilities.less" : {
      "ieCompatibility" : 1,
      "inputAbbreviatedPath" : "\/_\/components\/less\/responsive-utilities.less",
      "outputAbbreviatedPath" : "\/_\/components\/css\/responsive-utilities.css",
      "outputPathIsSetByUser" : 0,
      "strictUnits" : 0,
      "relativeURLS" : 0,
      "ignore" : 1,
      "strictImports" : 0,
      "ignoreWasSetByUser" : 0,
      "shouldRunBless" : 0,
      "hidden" : 0,
      "strictMath" : 0,
      "outputStyle" : 0,
      "fileType" : 1,
      "debugStyle" : 0
    },
    "\/_\/components\/less\/component-animations.less" : {
      "ieCompatibility" : 1,
      "inputAbbreviatedPath" : "\/_\/components\/less\/component-animations.less",
      "outputAbbreviatedPath" : "\/_\/components\/css\/component-animations.css",
      "outputPathIsSetByUser" : 0,
      "strictUnits" : 0,
      "relativeURLS" : 0,
      "ignore" : 1,
      "strictImports" : 0,
      "ignoreWasSetByUser" : 0,
      "shouldRunBless" : 0,
      "hidden" : 0,
      "strictMath" : 0,
      "outputStyle" : 0,
      "fileType" : 1,
      "debugStyle" : 0
    },
    "\/_\/components\/less\/list-group.less" : {
      "ieCompatibility" : 1,
      "inputAbbreviatedPath" : "\/_\/components\/less\/list-group.less",
      "outputAbbreviatedPath" : "\/_\/components\/css\/list-group.css",
      "outputPathIsSetByUser" : 0,
      "strictUnits" : 0,
      "relativeURLS" : 0,
      "ignore" : 1,
      "strictImports" : 0,
      "ignoreWasSetByUser" : 0,
      "shouldRunBless" : 0,
      "hidden" : 0,
      "strictMath" : 0,
      "outputStyle" : 0,
      "fileType" : 1,
      "debugStyle" : 0
    },
    "\/img\/favicon\/apple-touch-icon-72x72-precomposed.png" : {
      "ignoreWasSetByUser" : 0,
      "ignore" : 0,
      "hidden" : 0,
      "outputPathIsSetByUser" : 0,
      "inputAbbreviatedPath" : "\/img\/favicon\/apple-touch-icon-72x72-precomposed.png",
      "processed" : 0,
      "outputAbbreviatedPath" : "\/img\/favicon\/apple-touch-icon-72x72-precomposed.png",
      "initialSize" : 854,
      "fileType" : 8192
    },
    "\/_\/components\/js\/popover.js" : {
      "ignoreWasSetByUser" : 0,
      "ignore" : 1,
      "hidden" : 0,
      "outputPathIsSetByUser" : 0,
      "inputAbbreviatedPath" : "\/_\/components\/js\/popover.js",
      "outputStyle" : 1,
      "syntaxCheckerStyle" : 1,
      "outputAbbreviatedPath" : "\/_\/components\/js\/popover-ck.js",
      "fileType" : 64
    },
    "\/_\/components\/less\/buttons.less" : {
      "ieCompatibility" : 1,
      "inputAbbreviatedPath" : "\/_\/components\/less\/buttons.less",
      "outputAbbreviatedPath" : "\/_\/components\/css\/buttons.css",
      "outputPathIsSetByUser" : 0,
      "strictUnits" : 0,
      "relativeURLS" : 0,
      "ignore" : 1,
      "strictImports" : 0,
      "ignoreWasSetByUser" : 0,
      "shouldRunBless" : 0,
      "hidden" : 0,
      "strictMath" : 0,
      "outputStyle" : 0,
      "fileType" : 1,
      "debugStyle" : 0
    },
    "\/img\/noun.png" : {
      "ignoreWasSetByUser" : 0,
      "ignore" : 0,
      "hidden" : 0,
      "outputPathIsSetByUser" : 0,
      "inputAbbreviatedPath" : "\/img\/noun.png",
      "processed" : 0,
      "outputAbbreviatedPath" : "\/img\/noun.png",
      "initialSize" : 63542,
      "fileType" : 8192
    },
    "\/_\/components\/less\/navbar.less" : {
      "ieCompatibility" : 1,
      "inputAbbreviatedPath" : "\/_\/components\/less\/navbar.less",
      "outputAbbreviatedPath" : "\/_\/components\/css\/navbar.css",
      "outputPathIsSetByUser" : 0,
      "strictUnits" : 0,
      "relativeURLS" : 0,
      "ignore" : 1,
      "strictImports" : 0,
      "ignoreWasSetByUser" : 0,
      "shouldRunBless" : 0,
      "hidden" : 0,
      "strictMath" : 0,
      "outputStyle" : 0,
      "fileType" : 1,
      "debugStyle" : 0
    },
    "\/img\/favicon\/apple-touch-icon-precomposed.png" : {
      "ignoreWasSetByUser" : 0,
      "ignore" : 0,
      "hidden" : 0,
      "outputPathIsSetByUser" : 0,
      "inputAbbreviatedPath" : "\/img\/favicon\/apple-touch-icon-precomposed.png",
      "processed" : 0,
      "outputAbbreviatedPath" : "\/img\/favicon\/apple-touch-icon-precomposed.png",
      "initialSize" : 730,
      "fileType" : 8192
    },
    "\/_\/components\/less\/dropdowns.less" : {
      "ieCompatibility" : 1,
      "inputAbbreviatedPath" : "\/_\/components\/less\/dropdowns.less",
      "outputAbbreviatedPath" : "\/_\/components\/css\/dropdowns.css",
      "outputPathIsSetByUser" : 0,
      "strictUnits" : 0,
      "relativeURLS" : 0,
      "ignore" : 1,
      "strictImports" : 0,
      "ignoreWasSetByUser" : 0,
      "shouldRunBless" : 0,
      "hidden" : 0,
      "strictMath" : 0,
      "outputStyle" : 0,
      "fileType" : 1,
      "debugStyle" : 0
    },
    "\/_\/components\/js\/tooltip.js" : {
      "ignoreWasSetByUser" : 0,
      "ignore" : 1,
      "hidden" : 0,
      "outputPathIsSetByUser" : 0,
      "inputAbbreviatedPath" : "\/_\/components\/js\/tooltip.js",
      "outputStyle" : 1,
      "syntaxCheckerStyle" : 1,
      "outputAbbreviatedPath" : "\/_\/components\/js\/tooltip-ck.js",
      "fileType" : 64
    },
    "\/img\/russian-nouns.png" : {
      "ignoreWasSetByUser" : 0,
      "ignore" : 0,
      "hidden" : 0,
      "outputPathIsSetByUser" : 0,
      "inputAbbreviatedPath" : "\/img\/russian-nouns.png",
      "processed" : 0,
      "outputAbbreviatedPath" : "\/img\/russian-nouns.png",
      "initialSize" : 82501,
      "fileType" : 8192
    },
    "\/_\/components\/less\/grid.less" : {
      "ieCompatibility" : 1,
      "inputAbbreviatedPath" : "\/_\/components\/less\/grid.less",
      "outputAbbreviatedPath" : "\/_\/components\/css\/grid.css",
      "outputPathIsSetByUser" : 0,
      "strictUnits" : 0,
      "relativeURLS" : 0,
      "ignore" : 1,
      "strictImports" : 0,
      "ignoreWasSetByUser" : 0,
      "shouldRunBless" : 0,
      "hidden" : 0,
      "strictMath" : 0,
      "outputStyle" : 0,
      "fileType" : 1,
      "debugStyle" : 0
    },
    "\/_\/components\/less\/_mystyles.less" : {
      "ieCompatibility" : 1,
      "inputAbbreviatedPath" : "\/_\/components\/less\/_mystyles.less",
      "outputAbbreviatedPath" : "\/_\/css\/main.css",
      "outputPathIsSetByUser" : 1,
      "strictUnits" : 0,
      "relativeURLS" : 0,
      "ignore" : 0,
      "strictImports" : 0,
      "ignoreWasSetByUser" : 1,
      "shouldRunBless" : 0,
      "hidden" : 0,
      "strictMath" : 0,
      "outputStyle" : 2,
      "fileType" : 1,
      "debugStyle" : 0
    },
    "\/img\/poem.png" : {
      "ignoreWasSetByUser" : 0,
      "ignore" : 0,
      "hidden" : 0,
      "outputPathIsSetByUser" : 0,
      "inputAbbreviatedPath" : "\/img\/poem.png",
      "processed" : 0,
      "outputAbbreviatedPath" : "\/img\/poem.png",
      "initialSize" : 116347,
      "fileType" : 8192
    },
    "\/_\/components\/js\/_myscript.js" : {
      "ignoreWasSetByUser" : 0,
      "ignore" : 1,
      "hidden" : 0,
      "outputPathIsSetByUser" : 1,
      "inputAbbreviatedPath" : "\/_\/components\/js\/_myscript.js",
      "outputStyle" : 1,
      "syntaxCheckerStyle" : 0,
      "outputAbbreviatedPath" : "\/_\/js\/main.js",
      "fileType" : 64
    },
    "\/_\/components\/less\/pager.less" : {
      "ieCompatibility" : 1,
      "inputAbbreviatedPath" : "\/_\/components\/less\/pager.less",
      "outputAbbreviatedPath" : "\/_\/components\/css\/pager.css",
      "outputPathIsSetByUser" : 0,
      "strictUnits" : 0,
      "relativeURLS" : 0,
      "ignore" : 1,
      "strictImports" : 0,
      "ignoreWasSetByUser" : 0,
      "shouldRunBless" : 0,
      "hidden" : 0,
      "strictMath" : 0,
      "outputStyle" : 0,
      "fileType" : 1,
      "debugStyle" : 0
    },
    "\/_\/components\/less\/utilities.less" : {
      "ieCompatibility" : 1,
      "inputAbbreviatedPath" : "\/_\/components\/less\/utilities.less",
      "outputAbbreviatedPath" : "\/_\/components\/css\/utilities.css",
      "outputPathIsSetByUser" : 0,
      "strictUnits" : 0,
      "relativeURLS" : 0,
      "ignore" : 1,
      "strictImports" : 0,
      "ignoreWasSetByUser" : 0,
      "shouldRunBless" : 0,
      "hidden" : 0,
      "strictMath" : 0,
      "outputStyle" : 0,
      "fileType" : 1,
      "debugStyle" : 0
    },
    "\/_\/css\/font-awesome.min.css" : {
      "ignoreWasSetByUser" : 0,
      "ignore" : 0,
      "hidden" : 0,
      "outputPathIsSetByUser" : 0,
      "inputAbbreviatedPath" : "\/_\/css\/font-awesome.min.css",
      "outputAbbreviatedPath" : "No Output Path",
      "fileType" : 16
    },
    "\/_\/js\/vendor\/modernizr-2.6.2-respond-1.1.0.min.js" : {
      "ignoreWasSetByUser" : 0,
      "ignore" : 0,
      "hidden" : 0,
      "outputPathIsSetByUser" : 0,
      "inputAbbreviatedPath" : "\/_\/js\/vendor\/modernizr-2.6.2-respond-1.1.0.min.js",
      "outputStyle" : 1,
      "syntaxCheckerStyle" : 1,
      "outputAbbreviatedPath" : "\/_\/js\/vendor\/modernizr-2.6.2-respond-1.1.0.min-ck.js",
      "fileType" : 64
    },
    "\/_\/components\/less\/input-groups.less" : {
      "ieCompatibility" : 1,
      "inputAbbreviatedPath" : "\/_\/components\/less\/input-groups.less",
      "outputAbbreviatedPath" : "\/_\/components\/css\/input-groups.css",
      "outputPathIsSetByUser" : 0,
      "strictUnits" : 0,
      "relativeURLS" : 0,
      "ignore" : 1,
      "strictImports" : 0,
      "ignoreWasSetByUser" : 0,
      "shouldRunBless" : 0,
      "hidden" : 0,
      "strictMath" : 0,
      "outputStyle" : 0,
      "fileType" : 1,
      "debugStyle" : 0
    },
    "\/_\/components\/less\/labels.less" : {
      "ieCompatibility" : 1,
      "inputAbbreviatedPath" : "\/_\/components\/less\/labels.less",
      "outputAbbreviatedPath" : "\/_\/components\/css\/labels.css",
      "outputPathIsSetByUser" : 0,
      "strictUnits" : 0,
      "relativeURLS" : 0,
      "ignore" : 1,
      "strictImports" : 0,
      "ignoreWasSetByUser" : 0,
      "shouldRunBless" : 0,
      "hidden" : 0,
      "strictMath" : 0,
      "outputStyle" : 0,
      "fileType" : 1,
      "debugStyle" : 0
    },
    "\/_\/components\/less\/badges.less" : {
      "ieCompatibility" : 1,
      "inputAbbreviatedPath" : "\/_\/components\/less\/badges.less",
      "outputAbbreviatedPath" : "\/_\/components\/css\/badges.css",
      "outputPathIsSetByUser" : 0,
      "strictUnits" : 0,
      "relativeURLS" : 0,
      "ignore" : 1,
      "strictImports" : 0,
      "ignoreWasSetByUser" : 0,
      "shouldRunBless" : 0,
      "hidden" : 0,
      "strictMath" : 0,
      "outputStyle" : 0,
      "fileType" : 1,
      "debugStyle" : 0
    },
    "\/_\/components\/less\/alerts.less" : {
      "ieCompatibility" : 1,
      "inputAbbreviatedPath" : "\/_\/components\/less\/alerts.less",
      "outputAbbreviatedPath" : "\/_\/components\/css\/alerts.css",
      "outputPathIsSetByUser" : 0,
      "strictUnits" : 0,
      "relativeURLS" : 0,
      "ignore" : 1,
      "strictImports" : 0,
      "ignoreWasSetByUser" : 0,
      "shouldRunBless" : 0,
      "hidden" : 0,
      "strictMath" : 0,
      "outputStyle" : 0,
      "fileType" : 1,
      "debugStyle" : 0
    },
    "\/_\/components\/less\/progress-bars.less" : {
      "ieCompatibility" : 1,
      "inputAbbreviatedPath" : "\/_\/components\/less\/progress-bars.less",
      "outputAbbreviatedPath" : "\/_\/components\/css\/progress-bars.css",
      "outputPathIsSetByUser" : 0,
      "strictUnits" : 0,
      "relativeURLS" : 0,
      "ignore" : 1,
      "strictImports" : 0,
      "ignoreWasSetByUser" : 0,
      "shouldRunBless" : 0,
      "hidden" : 0,
      "strictMath" : 0,
      "outputStyle" : 0,
      "fileType" : 1,
      "debugStyle" : 0
    },
    "\/_\/components\/js\/button.js" : {
      "ignoreWasSetByUser" : 0,
      "ignore" : 1,
      "hidden" : 0,
      "outputPathIsSetByUser" : 0,
      "inputAbbreviatedPath" : "\/_\/components\/js\/button.js",
      "outputStyle" : 1,
      "syntaxCheckerStyle" : 1,
      "outputAbbreviatedPath" : "\/_\/components\/js\/button-ck.js",
      "fileType" : 64
    }
  },
  "manualImportLinks" : [

  ],
  "projectSettings" : {
    "hamlNoEscapeInAttributes" : 0,
    "kitAutoOutputPathStyle" : 0,
    "lessOutputStyle" : 0,
    "hamlAutoOutputPathReplace2" : "",
    "draggedImportConcatenationStyle" : 1,
    "jadeAutoOutputPathStyle" : 0,
    "hamlEscapeHTMLCharacters" : 0,
    "javascriptAutoOutputPathStyle" : 0,
    "hamlOutputFormat" : 2,
    "stylusAutoOutputPathReplace1" : "stylus",
    "lessStrictImports" : 0,
    "sassAutoOutputPathStyle" : 2,
    "stylusAutoOutputPathReplace2" : "css",
    "lessAutoOutputPathStyle" : 2,
    "lessIECompatibility" : 1,
    "genericWebpageFileExtensionsString" : "html, htm, shtml, shtm, xhtml, php, jsp, asp, aspx, erb, ctp",
    "lessStrictUnits" : 0,
    "lessStrictMath" : 0,
    "coffeeMinifyOutput" : 1,
    "javascriptOutputSuffix" : "-ck",
    "jadeOutputStyle" : 0,
    "coffeeAutoOutputPathStyle" : 0,
    "autoSyncProjectSettingsFile" : 1,
    "lessAutoOutputPathReplace1" : "less",
    "jadeAutoOutputPathReplace1" : "",
    "lessAutoOutputPathRelativePath" : "..\/css",
    "hamlAutoOutputPathRelativePath" : "",
    "jsCheckerReservedNamesString" : "",
    "javascriptOutputStyle" : 1,
    "stylusDebugStyle" : 0,
    "hamlUseCDATA" : 0,
    "hamlAutoOutputPathStyle" : 0,
    "sassDebugStyle" : 0,
    "hamlOutputStyle" : 0,
    "stylusAutoOutputPathRelativePath" : "..\/css",
    "jsCheckerIndent" : 4,
    "kitAutoOutputPathRelativePath" : "",
    "lessAutoOutputPathReplace2" : "css",
    "jadeAutoOutputPathReplace2" : "",
    "shouldRunBless" : 0,
    "stylusAutoOutputPathStyle" : 2,
    "coffeeCheckOutputStyle" : 0,
    "slimOutputStyle" : 1,
    "javascriptSyntaxCheckerStyle" : 1,
    "sassAutoOutputPathReplace1" : "sass",
    "slimAutoOutputPathReplace1" : "",
    "sassOutputStyle" : 0,
    "coffeeAutoOutputPathRelativePath" : "",
    "slimCompileOnly" : 0,
    "slimLogicless" : 0,
    "uglifyIndent" : 4,
    "jadeAutoOutputPathRelativePath" : "",
    "hamlUseUnixNewlines" : 0,
    "hamlAutoOutputPathReplace1" : "",
    "javascriptAutoOutputPathReplace1" : "",
    "stylusOutputStyle" : 0,
    "javascriptAutoOutputPathReplace2" : "",
    "sassAutoOutputPathRelativePath" : "..\/css",
    "coffeeAutoOutputPathReplace1" : "",
    "hamlUseDoubleQuotes" : 0,
    "coffeeAutoOutputPathReplace2" : "",
    "kitAutoOutputPathReplace1" : "",
    "uglifyReservedNamesString" : "",
    "coffeeOutputStyle" : 0,
    "slimAutoOutputPathRelativePath" : "",
    "jsHintFlags" : {
      "latedef" : 1,
      "newcap" : 1,
      "curly" : 1,
      "trailing" : 1,
      "nonew" : 1,
      "es3" : 0,
      "freeze" : 1,
      "yui" : 0,
      "mootools" : 0,
      "proto" : 0,
      "boss" : 0,
      "funcscope" : 0,
      "jquery" : 1,
      "esnext" : 0,
      "camelcase" : 0,
      "dojo" : 0,
      "strict" : 0,
      "devel" : 0,
      "wsh" : 0,
      "nonstandard" : 0,
      "asi" : 0,
      "moz" : 0,
      "rhino" : 0,
      "smarttabs" : 0,
      "lastsemic" : 0,
      "noempty" : 0,
      "eqnull" : 0,
      "eqeqeq" : 1,
      "couch" : 0,
      "evil" : 0,
      "expr" : 0,
      "immed" : 0,
      "globalstrict" : 0,
      "undef" : 1,
      "iterator" : 0,
      "prototypejs" : 0,
      "noarg" : 1,
      "supernew" : 0,
      "node" : 0,
      "unused" : 1,
      "debug" : 0,
      "bitwise" : 1,
      "notypeof" : 1,
      "white" : 0,
      "browser" : 1,
      "worker" : 0,
      "laxcomma" : 0,
      "multistr" : 0,
      "shadow" : 0,
      "sub" : 0,
      "plusplus" : 0,
      "scripturl" : 0,
      "forin" : 0,
      "loopfunc" : 0,
      "laxbreak" : 0
    },
    "jsLintFlags" : {
      "white" : 0,
      "unparam" : 0,
      "regexp" : 0,
      "nomen" : 0,
      "vars" : 0,
      "sub" : 0,
      "stupid" : 0,
      "continue" : 0,
      "bitwise" : 0,
      "newcap" : 0,
      "sloppy" : 0,
      "closure" : 0,
      "browser" : 1,
      "properties" : 0,
      "plusplus" : 0,
      "debug" : 0,
      "forin" : 0,
      "eqeq" : 0,
      "evil" : 0,
      "node" : 0,
      "rhino" : 0,
      "devel" : 0,
      "ass" : 0
    },
    "uglifyFlags" : {
      "no-mangle-functions" : 0,
      "no-mangle" : 0,
      "no-copyright" : 0,
      "no-dead-code" : 0,
      "inline-script" : 0,
      "ascii" : 0,
      "unsafe" : 0,
      "mangle-toplevel" : 0,
      "no-seqs" : 1,
      "beautify" : 0,
      "lift-vars" : 0,
      "consolidate-primitive-values" : 0,
      "no-squeeze" : 0
    },
    "sassAutoOutputPathReplace2" : "css",
    "slimAutoOutputPathReplace2" : "",
    "jadeCompileDebug" : 1,
    "slimRailsCompatible" : 0,
    "kitAutoOutputPathReplace2" : "",
    "lessRelativeURLS" : 0,
    "lessDebugStyle" : 0,
    "javascriptAutoOutputPathRelativePath" : "",
    "slimAutoOutputPathStyle" : 0
  },
  "projectAttributes" : {
    "bourbonEnabled" : 0,
    "displayValue" : "web",
    "displayValueWasSetByUser" : 0,
    "compassEnabled" : 0
  }
}